Applications of Anomaly and Outlier Detection
…
To begin implementation, it is ideal to install the dbscan package which will be used to calculate the LOF value:

library(dbscan)

It is also nice to look at the dimensions and a tibble of our dataset so we are familiar with it:

dim(breast_cancer_data)

[1] 569  32

#Tibble
breast_cancer_data %>% tibble()

# A tibble: 569 × 32
         id diagnosis radius_mean texture_mean perimeter_mean area_mean
      <dbl> <chr>           <dbl>        <dbl>          <dbl>     <dbl>
 1   842302 M                18.0         10.4          123.      1001 
 2   842517 M                20.6         17.8          133.      1326 
 3 84300903 M                19.7         21.2          130       1203 
 4 84348301 M                11.4         20.4           77.6      386.
 5 84358402 M                20.3         14.3          135.      1297 
 6   843786 M                12.4         15.7           82.6      477.
 7   844359 M                18.2         20.0          120.      1040 
 8 84458202 M                13.7         20.8           90.2      578.
 9   844981 M                13           21.8           87.5      520.
10 84501001 M                12.5         24.0           84.0      476.
# ℹ 559 more rows
# ℹ 26 more variables: smoothness_mean <dbl>, compactness_mean <dbl>,
#   concavity_mean <dbl>, `concave points_mean` <dbl>, symmetry_mean <dbl>,
#   fractal_dimension_mean <dbl>, radius_se <dbl>, texture_se <dbl>,
#   perimeter_se <dbl>, area_se <dbl>, smoothness_se <dbl>,
#   compactness_se <dbl>, concavity_se <dbl>, `concave points_se` <dbl>,
#   symmetry_se <dbl>, fractal_dimension_se <dbl>, radius_worst <dbl>, …
…
